<?xml version="1.0" standalone="no"?>
<!DOCTYPE svg PUBLIC "-//W3C//DTD SVG 1.1//EN" "http://www.w3.org/Graphics/SVG/1.1/DTD/svg11.dtd">
<svg xmlns="http://www.w3.org/2000/svg">
<metadata>Copyright (C) 2014 by original authors @ fontello.com</metadata>
<defs>
<font id="close" horiz-adv-x="1000" >
<font-face font-family="close" font-weight="400" font-stretch="normal" units-per-em="1000" ascent="850" descent="-150" />
<missing-glyph horiz-adv-x="1000" />
<glyph glyph-name="delete30" unicode="&#x31;" d="m768 524l-174-174 174-174c26-26 26-68 0-94-13-13-30-20-47-20-17 0-34 7-47 20l-174 174-174-174c-13-13-30-20-47-20-17 0-34 7-47 20-26 26-26 68 0 94l174 174-174 174c-26 26-26 68 0 94 26 26 68 26 94 0l174-174 174 174c26 26 68 26 94 0 26-26 26-68 0-94z" horiz-adv-x="1000" />
<glyph glyph-name="close40" unicode="&#x32;" d="m687 493c0 11-5 22-13 31-9 8-20 13-31 13-13 1-26-4-36-13l-107-108-107 108c-10 9-23 14-35 13-12 0-23-5-32-13-8-9-13-20-13-31-1-13 4-26 13-35l108-108-108-107c-9-10-14-23-13-35 0-12 5-23 13-32 9-8 20-13 32-13 12-1 25 4 35 13l107 108 108-108c9-9 22-14 35-13 11 0 22 5 31 13 8 9 13 20 13 32 1 12-4 25-13 35l-108 107 108 107c9 10 14 23 13 36z m-187 357c-276 0-500-224-500-500 0-276 224-500 500-500 276 0 500 224 500 500 0 276-224 500-500 500z m0-906c-224 0-406 182-406 406 0 224 182 406 406 406s406-182 406-406c0-224-182-406-406-406z" horiz-adv-x="1000" />
<glyph glyph-name="prohibited1" unicode="&#x33;" d="m575 319l173 173c13 12 13 32 0 44-12 12-32 12-44 0l-173-173-173 173c-12 12-32 12-44 0-12-12-12-32 0-44l173-173-173-173c-12-12-12-32 0-44 12-13 32-13 44 0l173 173 173-173c12-13 32-13 44 0s13 32 0 44l-173 173z" horiz-adv-x="1000" />
<glyph glyph-name="cross93" unicode="&#x34;" d="m649 350l325 325c8 8 8 21 0 29l-120 120c-4 4-9 6-14 6s-11-2-15-6l-325-325-325 325c-8 7-21 7-29 0l-120-120c-8-8-8-21 0-29l326-325-326-325c-8-8-8-21 0-29l120-120c4-4 9-6 15-6s10 2 14 6l325 326 325-326c4-4 9-6 15-6s10 2 14 6l120 120c8 8 8 21 0 29l-325 325z" horiz-adv-x="1000" />
<glyph glyph-name="close15" unicode="&#x35;" d="m688 350l281 281c41 42 41 109 0 151l-37 37c-42 41-109 41-151 0l-281-281-281 281c-42 41-109 41-150 0l-38-37c-41-42-41-109 0-151l281-281-281-281c-41-42-41-109 0-151l38-37c41-41 108-41 150 0l281 281 281-281c42-41 109-41 151 0l37 37c41 42 41 109 0 151l-281 281z" horiz-adv-x="1000" />
<glyph glyph-name="close3" unicode="&#x36;" d="m500 850c-276 0-500-224-500-500 0-276 224-500 500-500 276 0 500 224 500 500 0 276-224 500-500 500z m215-635l-80-80c0 0-126 135-135 135-9 0-135-135-135-135l-80 80c0 0 135 124 135 135 0 11-135 135-135 135l80 80c0 0 127-135 135-135 8 0 135 135 135 135l80-80c0 0-135-126-135-135 0-9 135-135 135-135z" horiz-adv-x="1000" />
</font>
</defs>
</svg>